digraph G {
  nodesep = 0.05;
  rankdir = LR;
  node[style = invis];
  a -> b[label = "Association"    , arrowhead = open];
  c -> d[label = "Inhertance"     , arrowhead = empty];
  e -> f[label = "Implementation" , arrowhead = open, style = dashed];
  g -> h[label = "Dependency"     , arrowhead = empty , style = dashed];
  i -> j[label = "Aggregation"    , arrowhead = odiamond];
  k -> l[label = "Composition"    , arrowhead = diamond];
}
